<?xml version="1.0" encoding="UTF-8" standalone="no"?>
<svg width="44px" height="28px" viewBox="0 0 44 28" version="1.1" xmlns="http://www.w3.org/2000/svg" xmlns:xlink="http://www.w3.org/1999/xlink" xmlns:sketch="http://www.bohemiancoding.com/sketch/ns">
    <title>beh</title>
    <description>Created with Sketch (http://www.bohemiancoding.com/sketch)</description>
    <defs></defs>
    <g id="Page-1" stroke="none" stroke-width="1" fill="none" fill-rule="evenodd" sketch:type="MSPage">
        <g id="Imported-Layers" sketch:type="MSLayerGroup" transform="translate(1.000000, 1.000000)" fill="#FFFFFF">
            <path d="M15.341,26.106 C16.53,25.849 17.528,25.398 18.333,24.754 C19.083,24.202 19.714,23.494 20.227,22.63 C20.996,21.416 21.398,20.045 21.435,18.518 L21.435,18.325 C21.435,16.78 21.087,15.474 20.392,14.407 C19.696,13.322 18.671,12.531 17.317,12.034 C18.214,11.556 18.882,11.05 19.321,10.517 C20.163,9.524 20.584,8.199 20.584,6.543 C20.584,5.789 20.493,5.09 20.309,4.446 C20.09,3.711 19.76,3.049 19.321,2.46 C18.003,0.62 15.697,-0.345 12.403,-0.437 L-0.5,-0.437 L-0.5,26.438 L11.552,26.438 C12.906,26.438 14.169,26.327 15.341,26.106 L15.341,26.106 Z M5.677,4.253 L10.646,4.253 C11.506,4.253 12.257,4.318 12.897,4.446 C13.226,4.52 13.519,4.603 13.775,4.695 C14.764,5.081 15.258,5.9 15.258,7.15 C15.258,8.272 14.892,9.064 14.16,9.524 C13.446,9.965 12.513,10.186 11.36,10.186 L5.677,10.186 L5.677,4.253 L5.677,4.253 Z M5.677,21.802 L5.677,14.628 L11.387,14.628 C12.577,14.665 13.474,14.821 14.078,15.097 C15.212,15.63 15.78,16.587 15.78,17.967 C15.78,18.169 15.771,18.353 15.753,18.518 C15.642,19.88 15.066,20.818 14.023,21.333 C13.4,21.646 12.504,21.802 11.333,21.802 L5.677,21.802 L5.677,21.802 Z" id="Fill-1" sketch:type="MSShapeGroup"></path>
            <path d="M27.557,0.722 L38.346,0.722 L38.346,3.398 L27.557,3.398 L27.557,0.722 Z" id="Fill-2" sketch:type="MSShapeGroup"></path>
            <path d="M40.789,9.606 C39.929,8.337 38.831,7.39 37.495,6.764 C36.177,6.157 34.667,5.854 32.965,5.854 C30.183,5.854 27.905,6.746 26.129,8.53 C24.373,10.314 23.494,12.871 23.494,16.201 C23.494,17.028 23.549,17.801 23.659,18.518 C24.006,20.91 24.93,22.713 26.431,23.927 C28.372,25.508 30.613,26.3 33.157,26.3 C36.25,26.3 38.657,25.361 40.377,23.485 C41.494,22.29 42.107,21.122 42.217,19.981 L37.11,19.981 C36.836,20.551 36.488,21.002 36.067,21.333 C35.372,21.922 34.457,22.216 33.322,22.216 C32.224,22.216 31.291,21.977 30.522,21.499 C29.533,20.873 28.911,19.88 28.655,18.518 C28.6,18.187 28.564,17.829 28.545,17.442 L42.464,17.442 C42.5,15.732 42.455,14.444 42.326,13.58 C42.107,12.108 41.594,10.784 40.789,9.606 L40.789,9.606 Z M28.655,14.104 C28.838,12.816 29.286,11.823 30,11.124 C30.714,10.388 31.702,10.02 32.965,10.02 C34.173,10.02 35.18,10.37 35.985,11.069 C36.772,11.749 37.211,12.761 37.303,14.104 L28.655,14.104 L28.655,14.104 Z" id="Fill-3" sketch:type="MSShapeGroup"></path>
        </g>
    </g>
</svg>